%YAML 1.1
%TAG !u! tag:unity3d.com,2011:
--- !u!114 &11400000
MonoBehaviour:
  m_ObjectHideFlags: 0
  m_PrefabParentObject: {fileID: 0}
  m_PrefabInternal: {fileID: 0}
  m_GameObject: {fileID: 0}
  m_Enabled: 1
  m_EditorHideFlags: 0
  m_Script: {fileID: 11500000, guid: 56573b011bce38540886f33a5f09fd30, type: 3}
  m_Name: DifficultyColors
  m_EditorClassIdentifier: 
  Colors:
  - {r: 0.023529414, g: 0.62352943, b: 0.8941177, a: 1}
  - {r: 0.93725497, g: 0.8235295, b: 0, a: 1}
  - {r: 0.9568628, g: 0.058823533, b: 0.5921569, a: 1}
