%YAML 1.1
%TAG !u! tag:unity3d.com,2011:
--- !u!114 &11400000
MonoBehaviour:
  m_ObjectHideFlags: 0
  m_PrefabParentObject: {fileID: 0}
  m_PrefabInternal: {fileID: 0}
  m_GameObject: {fileID: 0}
  m_Enabled: 1
  m_EditorHideFlags: 0
  m_Script: {fileID: 11500000, guid: 7744a74c6cdf3a7469adacda8b2a4a82, type: 3}
  m_Name: RankScriptableObject
  m_EditorClassIdentifier: 
  RankSprites:
  - {fileID: 21300000, guid: a089e5497ad8fc04fafc5d0927adacd1, type: 3}
  - {fileID: 21300000, guid: 18bd676f81623ec419d18b3c4ff22ebc, type: 3}
  - {fileID: 21300000, guid: 59f25aa749cdb22429ee8f6d3c29ebb3, type: 3}
  - {fileID: 21300000, guid: a0cea706a4221cd4b83709853f7aeebc, type: 3}
  - {fileID: 21300000, guid: 3bfce6e5641ab3b4eb4f82468d5ef288, type: 3}
  - {fileID: 21300000, guid: f17512bdf3cc8114e9924855c7dea034, type: 3}
  - {fileID: 21300000, guid: 6c2d9ad2a42f6cc45bc986d5b43d39ba, type: 3}
  - {fileID: 21300000, guid: a9201477de9e50c4f9627eb2d1c939ad, type: 3}
  - {fileID: 21300000, guid: 4a7be97e6dbb6ea4dacf0d9b4e43a40e, type: 3}
  - {fileID: 21300000, guid: 21405dd57472d664ab249ee03b71435a, type: 3}
